{
    "region.root": {
        "region.root_exits": {
            "type": "mixin",
            "el": "mixin.is_starting_age"
        }
    },
    "region.hyrule_castle_grounds": {
        "region.hc_garden": {
            "type": "value",
            "el": "item.egg"
        }
    },
    "region.ganons_castle_lobby": {
        "region.ganons_castle_tower": {
            "type": "gte",
            "el": [
                {
                    "type": "add",
                    "el": [
                        {
                            "type": "or",
                            "el": [
                                {
                                    "type": "not",
                                    "el": {
                                        "type": "value",
                                        "el": "option.forest_trial"
                                    }
                                },
                                {
                                    "type": "value",
                                    "el": "event.forest_trial_clear"
                                }
                            ]
                        },
                        {
                            "type": "or",
                            "el": [
                                {
                                    "type": "not",
                                    "el": {
                                        "type": "value",
                                        "el": "option.fire_trial"
                                    }
                                },
                                {
                                    "type": "value",
                                    "el": "event.fire_trial_clear"
                                }
                            ]
                        },
                        {
                            "type": "or",
                            "el": [
                                {
                                    "type": "not",
                                    "el": {
                                        "type": "value",
                                        "el": "option.water_trial"
                                    }
                                },
                                {
                                    "type": "value",
                                    "el": "event.water_trial_clear"
                                }
                            ]
                        },
                        {
                            "type": "or",
                            "el": [
                                {
                                    "type": "not",
                                    "el": {
                                        "type": "value",
                                        "el": "option.shadow_trial"
                                    }
                                },
                                {
                                    "type": "value",
                                    "el": "event.shadow_trial_clear"
                                }
                            ]
                        },
                        {
                            "type": "or",
                            "el": [
                                {
                                    "type": "not",
                                    "el": {
                                        "type": "value",
                                        "el": "option.spirit_trial"
                                    }
                                },
                                {
                                    "type": "value",
                                    "el": "event.spirit_trial_clear"
                                }
                            ]
                        },
                        {
                            "type": "or",
                            "el": [
                                {
                                    "type": "not",
                                    "el": {
                                        "type": "value",
                                        "el": "option.light_trial"
                                    }
                                },
                                {
                                    "type": "value",
                                    "el": "event.light_trial_clear"
                                }
                            ]
                        }
                    ]
                },
                {
                    "type": "value",
                    "el": "option.number_trials"
                }
            ]
        }
    },
    "region.ganons_castle_lobby_mq": {
        "region.ganons_castle_tower": {
            "type": "gte",
            "el": [
                {
                    "type": "add",
                    "el": [
                        {
                            "type": "or",
                            "el": [
                                {
                                    "type": "not",
                                    "el": {
                                        "type": "value",
                                        "el": "option.forest_trial"
                                    }
                                },
                                {
                                    "type": "value",
                                    "el": "event.forest_trial_clear"
                                }
                            ]
                        },
                        {
                            "type": "or",
                            "el": [
                                {
                                    "type": "not",
                                    "el": {
                                        "type": "value",
                                        "el": "option.fire_trial"
                                    }
                                },
                                {
                                    "type": "value",
                                    "el": "event.fire_trial_clear"
                                }
                            ]
                        },
                        {
                            "type": "or",
                            "el": [
                                {
                                    "type": "not",
                                    "el": {
                                        "type": "value",
                                        "el": "option.water_trial"
                                    }
                                },
                                {
                                    "type": "value",
                                    "el": "event.water_trial_clear"
                                }
                            ]
                        },
                        {
                            "type": "or",
                            "el": [
                                {
                                    "type": "not",
                                    "el": {
                                        "type": "value",
                                        "el": "option.shadow_trial"
                                    }
                                },
                                {
                                    "type": "value",
                                    "el": "event.shadow_trial_clear"
                                }
                            ]
                        },
                        {
                            "type": "or",
                            "el": [
                                {
                                    "type": "not",
                                    "el": {
                                        "type": "value",
                                        "el": "option.spirit_trial"
                                    }
                                },
                                {
                                    "type": "value",
                                    "el": "event.spirit_trial_clear"
                                }
                            ]
                        },
                        {
                            "type": "or",
                            "el": [
                                {
                                    "type": "not",
                                    "el": {
                                        "type": "value",
                                        "el": "option.light_trial"
                                    }
                                },
                                {
                                    "type": "value",
                                    "el": "event.light_trial_clear"
                                }
                            ]
                        }
                    ]
                },
                {
                    "type": "value",
                    "el": "option.number_trials"
                }
            ]
        }
    }
}