{
    // additionals (not really used in tracker)
    "Gift from Sages": "location.sages_gift",
    "Links Pocket": "location.links_pocket",
    "Fairy Pot": "location.fairy_pot",
    "Wall Fairy": "location.wall_fairy",
    "Stick Pot": "location.stick_pot",
    "Nut Pot": "location.nut_pot",
    "Deku Baba Sticks": "location.sticks",
    "Deku Baba Nuts": "location.nuts",
    "Gossip Stone Fairy": "location.gossip_fairy",
    "Wall Switch Fairy": "location.wall_fairy",
    "Free Fairies": "location.fairy",
    "Blue Fire": "location.blue_fire",
    "Bean Plant Fairy": "location.bean_fairy",
    "Bug Shrub": "location.bug_shrub",
    "Butterfly Fairy": "location.butterfly_fairy",
    "Bug Rock": "location.bug_rock",
    "Fairy Pond": "location.woods.fairy_pond",
    "Master Sword Pedestal": "location.master_sword",
    "Market Bombchu Bowling Bombchus": "location.bowling_bombchus",
    "Deliver Rutos Letter": "location.deliver_letter",
    "Fish Group": "location.fish_group",
    "Lone Fish": "location.fish_lone",
    "Wandering Bugs": "location.bugs_wandering",
    "Nut Crate": "location.crate_nut",
    "Forest Temple Deku Baba Nuts": "location.nuts",
    "Forest Temple Deku Baba Sticks": "location.sticks",

    // grottos
    "Dodongos Cavern Gossip Stone": "location.dodongo.g_gossip_dodongo",
    "KF Deku Tree Gossip Stone (Left)": "location.kokiri.g_gossip_deku_left",
    "KF Deku Tree Gossip Stone (Right)": "location.kokiri.g_gossip_deku_right",
    "LW Gossip Stone": "location.woods.g_gossip_bridge",
    "KF Gossip Stone": "location.kokiri.g_gossip_kokiri",
    "SFM Maze Gossip Stone (Lower)": "location.woods.g_gossip_meadow_left",
    "SFM Maze Gossip Stone (Upper)": "location.woods.g_gossip_meadow_right",
    "SFM Saria Gossip Stone": "location.woods.g_gossip_meadow_saria",
    "LH Lab Gossip Stone": "location.lake.g_gossip_waterfall",
    "LH Gossip Stone (Southeast)": "location.lake.g_gossip_southeast",
    "LH Gossip Stone (Southwest)": "location.lake.g_gossip_southwest",
    "GV Gossip Stone": "location.gerudo_valley.g_gossip_gerudo_valley",
    "Colossus Gossip Stone": "location.desert.g_gossip_desert",
    "ToT Gossip Stone (Left)": "location.castle_town.g_gossip_tot_1",
    "ToT Gossip Stone (Left-Center)": "location.castle_town.g_gossip_tot_2",
    "ToT Gossip Stone (Right)": "location.castle_town.g_gossip_tot_3",
    "ToT Gossip Stone (Right-Center)": "location.castle_town.g_gossip_tot_4",
    "HC Malon Gossip Stone": "location.castle_town.g_gossip_castle_malon",
    "HC Rock Wall Gossip Stone": "location.castle_town.g_gossip_castle_climb",
    "Graveyard Gossip Stone": "location.kakariko.g_gossip_graveyard",
    "DMT Gossip Stone": "location.mountain.g_gossip_dm_trail",
    "GC Maze Gossip Stone": "location.goron.g_gossip_maze",
    "GC Medigoron Gossip Stone": "location.goron.g_gossip_medigoron",
    "DMC Gossip Stone": "location.mountain.g_gossip_dm_crater",
    "ZR Near Grottos Gossip Stone": "location.river.g_gossip_plateau",
    "ZR Near Domain Gossip Stone": "location.river.g_gossip_waterfall",
    "ZD Gossip Stone": "location.zoras.g_gossip_zora_king",
    "ZF Fairy Gossip Stone": "location.zoras.g_gossip_zora_fairy",
    "ZF Jabu Gossip Stone": "location.zoras.g_gossip_zora_jabu",
    "KF Storms Grotto Gossip Stone": "location.kokiri.g_gossip_grotto_kokiri",
    "LW Near Shortcuts Grotto Gossip Stone": "location.woods.g_gossip_grotto_woods",
    "HF Southeast Grotto Gossip Stone": "location.hyrule_field.g_gossip_grotto_small_forest",
    "HF Open Grotto Gossip Stone": "location.hyrule_field.g_gossip_grotto_near_lake",
    "HF Cow Grotto Gossip Stone": "location.hyrule_field.g_gossip_field_valley",
    "HF Near Market Grotto Gossip Stone": "location.hyrule_field.g_gossip_grotto_near_market",
    "HC Storms Grotto Gossip Stone": "location.castle_town.g_gossip_castle_grotto",
    "Kak Open Grotto Gossip Stone": "location.kakariko.g_gossip_grotto_kakariko",
    "DMT Storms Grotto Gossip Stone": "location.mountain.g_gossip_grotto_mountain",
    "DMC Upper Grotto Gossip Stone": "location.mountain.g_gossip_grotto_crater",
    "ZR Open Grotto Gossip Stone": "location.river.g_gossip_grotto_river",

    // hyrule field
    "HF Ocarina of Time Item": "location.hyrule_field.c_ocarina_of_time",
	"Song from Ocarina of Time": "location.hyrule_field.c_song_of_time",
    "HF Southeast Grotto Chest": "location.hyrule_field.c_hyrule_forest_grotto",
    "HF Open Grotto Chest": "location.hyrule_field.c_hyrule_south_grotto",
    "HF Deku Scrub Grotto": "location.hyrule_field.c_hyrule_deku_salesman_grotto",
    "HF GS Cow Grotto": "location.hyrule_field.s_hyrule_west_grotto",
	"HF Cow Grotto Cow": "location.hyrule_field.c_hyrule_west_grotto_cow",
    "HF Near Market Grotto Chest": "location.hyrule_field.c_hyrule_north_grotto",
    "HF GS Near Kak Grotto": "location.hyrule_field.s_hyrule_north_east_grotto",
    "HF Tektite Grotto Freestanding PoH": "location.hyrule_field.c_diving_heart_piece_grotto",
    "Big Poe Kill": "location.big_poe_kill",

    // kokiri
    "KF Kokiri Sword Chest": "location.kokiri.c_sword",
    "KF Midos Top Left Chest": "location.kokiri.c_midos_house",
	"KF Midos Top Right Chest": "location.kokiri.c_midos_house",
	"KF Midos Bottom Left Chest": "location.kokiri.c_midos_house",
	"KF Midos Bottom Right Chest": "location.kokiri.c_midos_house",
	"KF Links House Cow": "location.kokiri.c_links_house_cow",
    "KF Storms Grotto Chest": "location.kokiri.c_storm_grotto",
    "LW Gift from Saria": "location.kokiri.c_saria_ocarina",
    "KF GS Know It All House": "location.kokiri.s_know_it_all_brothers_child_night",
    "KF GS Bean Patch": "location.kokiri.s_beanspot_near_shop_child",
    "KF GS House of Twins": "location.kokiri.s_twins_adult_night",

    // woods
    "LW Skull Kid": "location.woods.c_skull_kid",
    "LW Ocarina Memory Game": "location.woods.c_memory_game",
    "LW Target in Woods": "location.woods.c_shooting",
    "LW Deku Scrub Near Bridge": "location.woods.c_deku_salesman",
    "LW GS Bean Patch Near Bridge": "location.woods.s_deku_salesman_beanspot_child",
    "LW GS Bean Patch Near Theater": "location.woods.s_mask_theater_beanspot_child",
    "LW Deku Scrub Near Deku Theater Right": "location.woods.c_deku_salesman_theater_1",
    "LW Deku Scrub Near Deku Theater Left": "location.woods.c_deku_salesman_theater_2",
    "Song from Saria": "location.woods.c_saria",
    "LW Near Shortcuts Grotto Chest": "location.woods.c_bomb_grotto",
    "Deku Theater Skull Mask": "location.woods.c_deku_theater_1",
    "Deku Theater Mask of Truth": "location.woods.c_deku_theater_2",
    "LW Deku Scrub Grotto Rear" : "location.woods.c_deku_salesman_grotto_2",
    "LW Deku Scrub Grotto Front": "location.woods.c_deku_salesman_grotto",
    "SFM Deku Scrub Grotto Front": "location.woods.c_deku_salesman_meadow_grotto_1",
    "SFM Deku Scrub Grotto Rear": "location.woods.c_deku_salesman_meadow_grotto_2",
    "SFM Wolfos Grotto Chest": "location.woods.c_wolfos_grotto",
    "Sheik in Forest": "location.woods.c_warp",
    "LW GS Above Theater": "location.woods.s_deku_salesman_magic_bean_adult",
    "SFM GS": "location.woods.s_labyrinth_adult_night",

    // kakariko
    "Kak Man on Roof": "location.kakariko.c_man_roof",
    "Kak Anju as Adult": "location.kakariko.c_anju_adult",
    "Kak Anju as Child": "location.kakariko.c_anju_chickens",
    "Sheik in Kakariko": "location.kakariko.c_warp",
    "Kak GS House Under Construction": "location.kakariko.s_construction_site_child_night",
    "Kak GS Skulltula House": "location.kakariko.s_skulltula_house_child_night",
    "Kak GS Guards House": "location.kakariko.s_near_gate_child_night",
    "Kak GS Tree": "location.kakariko.s_tree_child",
    "Kak GS Watchtower": "location.kakariko.s_tower_child_night",
    "Kak GS Above Impas House": "location.kakariko.s_impas_house_roof_adult_night",
    "Kak 10 Gold Skulltula Reward": "location.kakariko.c_skulltula_10",
    "Kak 20 Gold Skulltula Reward": "location.kakariko.c_skulltula_20",
    "Kak 30 Gold Skulltula Reward": "location.kakariko.c_skulltula_30",
    "Kak 40 Gold Skulltula Reward": "location.kakariko.c_skulltula_40",
    "Kak 50 Gold Skulltula Reward": "location.kakariko.c_skulltula_50",
    "Kak Impas House Freestanding PoH": "location.kakariko.c_cow_hp",
	"Kak Impas House Cow": "location.kakariko.c_impas_cow",
    "Kak Windmill Freestanding PoH": "location.kakariko.c_windmill_hp",
    "Song from Windmill": "location.kakariko.c_song_storm",
    "Kak Shooting Gallery Reward": "location.kakariko.c_adult_shooting",
    "Graveyard Freestanding PoH": "location.kakariko.c_bean_hp",
    "Graveyard Dampe Gravedigging Tour": "location.kakariko.c_digging",
    "Graveyard GS Wall": "location.kakariko.s_graveyard_royal_grave_child_night",
    "Graveyard GS Bean Patch": "location.kakariko.s_graveyard_beanspot_child_night",
    "Graveyard Shield Grave Chest": "location.kakariko.c_shield_grave",
    "Graveyard Heart Piece Grave Chest": "location.kakariko.c_redead_grave",
    "Graveyard Royal Familys Tomb Chest": "location.kakariko.c_sun_song_chest",
    "Song from Royal Familys Tomb": "location.kakariko.c_sun_song",
    "Graveyard Hookshot Chest": "location.kakariko.c_race_1",
    "Graveyard Dampe Race Freestanding PoH": "location.kakariko.c_race_2",
    "Kak Open Grotto Chest": "location.kakariko.c_grotto",
    "Kak Redead Grotto Chest": "location.kakariko.c_redead_grotto",

    // castle town
    "ToT Light Arrows Cutscene": "location.castle_town.c_light_arrows",
    "Sheik at Temple": "location.castle_town.c_warp",
    "HC Malon Egg": "location.castle_town.c_maron",
    "HC GS Tree": "location.castle_town.s_tree_child",
    "HC Zeldas Letter": "location.castle_town.c_zelda",
	"Song from Impa": "location.castle_town.c_zelda",
    "HC Great Fairy Reward": "location.castle_town.c_hyrule_fairy",
    "OGC GS": "location.castle_town.s_near_ganon_fairy_adult",
    "OGC Great Fairy Reward": "location.castle_town.c_ganon_fairy",
    "Market 10 Big Poes": "location.castle_town.c_poes",
    "Market GS Guard House": "location.castle_town.s_pot_room_child",
    "Market Shooting Gallery Reward": "location.castle_town.c_child_shooting",
    "Market Bombchu Bowling First Prize": "location.castle_town.c_bowling_1",
    "Market Bombchu Bowling Second Prize": "location.castle_town.c_bowling_2",
    "Market Treasure Chest Game Reward": "location.castle_town.c_chest_game",
    "Market Lost Dog": "location.castle_town.c_dog",
    "HC GS Storms Grotto": "location.castle_town.s_storm_grotto_child",

    // lonlon
    "Song from Malon": "location.lonlon.c_maron_song",
    "LLR GS Tree": "location.lonlon.s_tree_child_night",
    "LLR GS Rain Shed": "location.lonlon.s_paddock_fence_child_night",
    "LLR GS House Window": "location.lonlon.s_window_child_night",
    "LLR GS Back Wall": "location.lonlon.s_wall_child_night",
    "LLR Talons Chickens": "location.lonlon.c_talon_chicken",
	"LLR Stables Left Cow": "location.lonlon.c_cow_stables_1",
	"LLR Stables Right Cow": "location.lonlon.c_cow_stables_2",
    "LLR Freestanding PoH": "location.lonlon.c_hp",
	"LLR Tower Left Cow": "location.lonlon.c_cow_tower_1",
	"LLR Tower Right Cow": "location.lonlon.c_cow_tower_2",
    "LLR Deku Scrub Grotto Left": "location.lonlon.c_grotto_deku_salesman_1",
    "LLR Deku Scrub Grotto Center": "location.lonlon.c_grotto_deku_salesman_2",
    "LLR Deku Scrub Grotto Right": "location.lonlon.c_grotto_deku_salesman_3",

    // zora river
    "ZR GS Tree": "location.river.s_zora_tree_child",
	"ZR Magic Bean Salesman": "location.river.c_zora_bean_salesman",
    "ZR Frogs Ocarina Game": "location.river.c_frog_game",
    "ZR Frogs in the Rain": "location.river.c_frog_rain",
    "ZR GS Ladder": "location.river.s_zora_ladder_child_night",
    "ZR GS Near Raised Grottos": "location.river.s_zora_wall1_adult_night",
    "ZR GS Above Bridge": "location.river.s_zora_wall2_adult_night",
    "ZR Near Open Grotto Freestanding PoH": "location.river.c_zora_hp_1",
    "ZR Near Domain Freestanding PoH": "location.river.c_zora_hp_2",
    "ZR Open Grotto Chest": "location.river.c_zora_grotto",
    "ZR Deku Scrub Grotto Front": "location.river.c_zora_grotto_salesman_1",
    "ZR Deku Scrub Grotto Rear": "location.river.c_zora_grotto_salesman_2",

    // zoras
    "ZD Diving Minigame": "location.zoras.c_diving",
    "ZD Chest": "location.zoras.c_torch",
    "ZF GS Tree": "location.zoras.s_tree_child",
    "ZF GS Above the Log": "location.zoras.s_wall_child_night",
    "ZD King Zora Thawed": "location.zoras.c_king_zora",
    "ZD GS Frozen Waterfall": "location.zoras.s_wall_ice_adult_night",
    "ZF Iceberg Freestanding PoH": "location.zoras.c_ice",
    "ZF Bottom Freestanding PoH": "location.zoras.c_underwater",
    "ZF GS Hidden Cave": "location.zoras.s_fairy_hidden_cave_adult_night",
    "ZF Great Fairy Reward": "location.zoras.c_fairy",

    // lake
	"Pierre" : "location.lake.c_song_scarecrow",
    "LH Underwater Item": "location.lake.c_bottle_zora",
    "LH Sun": "location.lake.c_sun",
    "LH Freestanding PoH": "location.lake.c_lab_roof",
    "LH GS Bean Patch": "location.lake.s_beanspot_child",
    "LH GS Lab Wall": "location.lake.s_behind_lab_child_night",
    "LH GS Small Island": "location.lake.s_near_firearrows_child_night",
    "LH GS Tree": "location.lake.s_dead_tree_adult_night",
    "LH Lab Dive": "location.lake.c_lab_dive",
    "LH GS Lab Crate": "location.lake.s_lab_box_adult",
    "LH Child Fishing": "location.lake.c_fishing_child",
    "LH Adult Fishing": "location.lake.c_fishing_adult",
    "LH Deku Scrub Grotto Left": "location.lake.c_grave_grotto_salesman_1",
    "LH Deku Scrub Grotto Center": "location.lake.c_grave_grotto_salesman_2",
    "LH Deku Scrub Grotto Right": "location.lake.c_grave_grotto_salesman_3",

    // gerudo valley
    "GV Waterfall Freestanding PoH": "location.gerudo_valley.c_gerudo_waterfall",
    "GV Crate Freestanding PoH": "location.gerudo_valley.c_gerudo_crate",
	"GV Cow" : "location.gerudo_valley.c_gerudo_river_cow",
    "GV GS Small Bridge": "location.gerudo_valley.s_gerudo_wood_plank_child_night",
    "GV GS Bean Patch": "location.gerudo_valley.s_gerudo_river_beanspot_child",
    "GV Chest": "location.gerudo_valley.c_gerudo_hammer_rock",
    "GV GS Behind Tent": "location.gerudo_valley.s_gerudo_behind_carpenter_tent_adult_night",
    "GV GS Pillar": "location.gerudo_valley.s_gerudo_rock_near_carpenter_tent_adult_night",
    "GV Deku Scrub Grotto Front": "location.gerudo_valley.c_gerudo_behind_carpenter_tent_grotto_salesman_1",
    "GV Deku Scrub Grotto Rear": "location.gerudo_valley.c_gerudo_behind_carpenter_tent_grotto_salesman_2",

    // gerudo fortress
    "GF Chest": "location.gerudo.c_rooftop",
    "GF HBA 1000 Points": "location.gerudo.c_archer_1",
    "GF HBA 1500 Points": "location.gerudo.c_archer_2",
    "Hideout Jail Guard (1 Torch)": "location.gerudo.c_guard_1",
    "Hideout Jail Guard (2 Torches)": "location.gerudo.c_guard_2",
    "Hideout Jail Guard (3 Torches)": "location.gerudo.c_guard_3",
    "Hideout Jail Guard (4 Torches)": "location.gerudo.c_guard_4",
    "Hideout Gerudo Membership Card": "location.gerudo.c_fortress_clear",
    "GF GS Archery Range": "location.gerudo.s_horseback_archery_target_adult_night",
    "GF GS Top Floor": "location.gerudo.s_rooftop_adult_night",

    // desert
    "Wasteland Chest": "location.desert.c_chest",
    "Wasteland GS": "location.desert.s_fortress_adult",
    "Colossus Freestanding PoH": "location.desert.c_colossus_hp",
    "Sheik at Colossus": "location.desert.c_warp_spirit",
    "Colossus GS Bean Patch": "location.desert.s_beanspot_child",
    "Colossus GS Tree": "location.desert.s_palm_tree_adult_night",
    "Colossus GS Hill": "location.desert.s_magic_bean_adult_night",
    "Colossus Great Fairy Reward": "location.desert.c_colossus_fairy",
    "Colossus Deku Scrub Grotto Front": "location.desert.c_colossus_grotto_salesman_1",
    "Colossus Deku Scrub Grotto Rear": "location.desert.c_colossus_grotto_salesman_2",
    "Wasteland Bombchu Salesman": "location.desert.c_bombchu_wasteland",

    // death mountain
    "DMT Chest": "location.mountain.c_outside_goron_chest",
    "DMT Freestanding PoH": "location.mountain.c_above_dodongo",
    "DMT GS Bean Patch": "location.mountain.s_cave_entrance_beanspot_child",
    "DMT GS Near Kak": "location.mountain.s_bombable",
    "DMT GS Falling Rocks Path": "location.mountain.s_wall_hammer_rock_adult_night",
    "DMT GS Above Dodongos Cavern": "location.mountain.s_before_goron_hammer_rock_adult_night",
	"DMT Cow Grotto Cow": "location.mountain.c_grotto_cow",
    "DMC Wall Freestanding PoH": "location.mountain.c_crater_wall",
    "DMT Biggoron": "location.mountain.c_biggoron",
    "DMC GS Crate": "location.mountain.s_crater_box_child",
    "DMC Deku Scrub": "location.mountain.c_crater_ladder_salesman",
    "DMC Volcano Freestanding PoH": "location.mountain.c_magic_bean",
    "Sheik in Crater": "location.mountain.c_warp",
    "DMC GS Bean Patch": "location.mountain.s_crater_beanspot_child",
    "DMC Great Fairy Reward": "location.mountain.c_crater_fairy",
	"DMT Great Fairy Reward": "location.mountain.c_summit_fairy",
    "DMT Storms Grotto Chest": "location.mountain.c_outside_goron_grotto",
    "DMC Upper Grotto Chest": "location.mountain.c_crater_grotto",
    "DMC Deku Scrub Grotto Left": "location.mountain.c_crater_grotto_salesman_1",
    "DMC Deku Scrub Grotto Center": "location.mountain.c_crater_grotto_salesman_2",
    "DMC Deku Scrub Grotto Right": "location.mountain.c_crater_grotto_salesman_3",

    // goron city
    "GC Maze Left Chest": "location.goron.c_maze_left",
    "GC Maze Center Chest": "location.goron.c_maze_center",
    "GC Maze Right Chest": "location.goron.c_maze_right",
    "GC Pot Freestanding PoH": "location.goron.c_spinning_pot_hp",
    "GC Rolling Goron as Child": "location.goron.c_hot_rodder",
    "GC Rolling Goron as Adult": "location.goron.c_little_link",
    "GC GS Boulder Maze": "location.goron.s_maze_center_child",
    "GC GS Center Platform": "location.goron.s_center_platform_adult",
    "GC Darunias Joy": "location.goron.c_darunia",
    "GC Deku Scrub Grotto Left": "location.goron.c_grotto_salesman_1",
    "GC Deku Scrub Grotto Center": "location.goron.c_grotto_salesman_2",
    "GC Deku Scrub Grotto Right": "location.goron.c_grotto_salesman_3",
    "GC Medigoron": "location.goron.c_medigoron",

    // deku
    "Deku Tree Map Chest": "location.deku.c_lobby",
    "Deku Tree Basement Chest": "location.deku.c_basement",
    "Deku Tree Slingshot Chest": "location.deku.c_slingshot",
    "Deku Tree Slingshot Room Side Chest": "location.deku.c_slingshot_side",
    "Deku Tree Compass Chest": "location.deku.c_compass",
    "Deku Tree Compass Room Side Chest": "location.deku.c_compass_side",
    "Deku Tree GS Basement Vines": "location.deku.s_basement_vines_child",
    "Deku Tree GS Compass Room": "location.deku.s_3f_compass_side_child",
    "Deku Tree GS Basement Gate": "location.deku.s_basement_metal_gate_child",
    "Deku Tree GS Basement Back Room": "location.deku.s_bombable_behind_web_child",
    
    "Deku Tree Queen Gohma Heart": "location.deku.c_gohma",
    "Queen Gohma": "location.deku.c_gohma",

    // deku MQ
    "Deku Tree MQ Map Chest": "location.deku_mq.c_lobby",
    "Deku Tree MQ Slingshot Chest": "location.deku_mq.c_slingshot",
    "Deku Tree MQ Slingshot Room Back Chest": "location.deku_mq.c_slingshot_back",
    "Deku Tree MQ Basement Chest": "location.deku_mq.c_basement",
    "Deku Tree MQ Compass Chest": "location.deku_mq.c_compass",
    "Deku Tree MQ Before Spinning Log Chest": "location.deku_mq.c_before_log",
    "Deku Tree MQ After Spinning Log Chest": "location.deku_mq.c_after_log",
    "Deku Tree MQ Deku Scrub": "location.deku_mq.c_basement_salesman",
    "Deku Tree MQ GS Basement Graves Room": "location.deku_mq.s_basement_grave_ceiling_child",
    "Deku Tree MQ GS Compass Room": "location.deku_mq.s_2f_compass_side_child",
    "Deku Tree MQ GS Lobby": "location.deku_mq.s_crate_near_map_child",
    "Deku Tree MQ GS Basement Back Room": "location.deku_mq.s_basement_back_room_child",

    // dodongo
    "Dodongos Cavern Compass Chest": "location.dodongo.c_compass",
    "Dodongos Cavern Map Chest": "location.dodongo.c_map",
    "Dodongos Cavern Bomb Flower Platform Chest": "location.dodongo.c_bomb_flower_platform",
    "Dodongos Cavern End of Bridge Chest": "location.dodongo.c_end_bridge",
    "Dodongos Cavern Bomb Bag Chest": "location.dodongo.c_bomb_bag",
    "Dodongos Cavern Deku Scrub Lobby": "location.dodongo.c_lobby_salesman",
    "Dodongos Cavern Deku Scrub Near Bomb Bag Left": "location.dodongo.c_near_bomb_bag_salesman_1",
    "Dodongos Cavern Deku Scrub Near Bomb Bag Right": "location.dodongo.c_near_bomb_bag_salesman_2",
    "Dodongos Cavern Deku Scrub Side Room Near Dodongos": "location.dodongo.c_east_corridor_salesman",
    "Dodongos Cavern Boss Room Chest": "location.dodongo.c_chest_above_dodongo",
    "Dodongos Cavern GS Vines Above Stairs": "location.dodongo.s_big_staircase_vines",
    "Dodongos Cavern GS Back Room": "location.dodongo.s_near_boss_bombable",
    "Dodongos Cavern GS Alcove Above Stairs": "location.dodongo.s_above_big_staircase_adult",
    "Dodongos Cavern GS Scarecrow": "location.dodongo.s_east_corridor_scarecrow_adult",
    "Dodongos Cavern GS Side Room Near Lower Lizalfos": "location.dodongo.s_east_corridor_bombable",
    
    "Dodongos Cavern King Dodongo Heart": "location.dodongo.c_dodongo",
    "King Dodongo": "location.dodongo.c_dodongo",

    // dodongo MQ
    "Dodongos Cavern MQ Map Chest": "location.dodongo_mq.c_map",
    "Dodongos Cavern MQ Compass Chest": "location.dodongo_mq.c_compass",
    "Dodongos Cavern MQ Bomb Bag Chest": "location.dodongo_mq.c_bomb_bag",
    "Dodongos Cavern MQ Under Grave Chest": "location.dodongo_mq.c_under_grave",
    "Dodongos Cavern MQ Torch Puzzle Room Chest": "location.dodongo_mq.c_torch_puzzle_room",
    "Dodongos Cavern MQ Deku Scrub Side Room Near Lower Lizalfos": "location.dodongo_mq.c_1f_right",
    "Dodongos Cavern MQ Deku Scrub Staircase": "location.dodongo_mq.c_above_stairs",
    "Dodongos Cavern MQ Larvae Room Chest": "location.dodongo_mq.c_gohma_larva_room",
    "Dodongos Cavern MQ Deku Scrub Lobby Front": "location.dodongo_mq.c_main_room_salesman_1",
    "Dodongos Cavern MQ Deku Scrub Lobby Rear": "location.dodongo_mq.c_main_room_salesman_2",
    "Dodongos Cavern MQ GS Song of Time Block Room": "location.dodongo_mq.s_time_block_room",
    "Dodongos Cavern MQ GS Scrub Room": "location.dodongo_mq.s_scrub_poe_room",
    "Dodongos Cavern MQ GS Lizalfos Room": "location.dodongo_mq.s_upper_lizalfos_room",
    "Dodongos Cavern MQ GS Back Area": "location.dodongo_mq.s_back_area",
    "Dodongos Cavern MQ GS Larvae Room": "location.dodongo_mq.s_gohma_larva_skulltula",

    // jabu
	"Jabu Jabus Belly Boomerang Chest": "location.jabujabu.c_boomerang",
    "Jabu Jabus Belly GS Water Switch Room": "location.jabujabu.s_b1_rising_water_child",
    "Jabu Jabus Belly GS Lobby Basement Lower": "location.jabujabu.s_b1_ruto1_child",
    "Jabu Jabus Belly GS Lobby Basement Upper": "location.jabujabu.s_b1_ruto2_child",
    "Jabu Jabus Belly Deku Scrub": "location.jabujabu.c_elevator_dive_salesman",
	"Jabu Jabus Belly Map Chest": "location.jabujabu.c_map",
    "Jabu Jabus Belly Compass Chest": "location.jabujabu.c_compass",
    "Jabu Jabus Belly GS Near Boss": "location.jabujabu.s_1f_near_boss_child",
	
	"Jabu Jabus Belly Barinade Heart": "location.jabujabu.c_barinade",
    "Barinade": "location.jabujabu.c_barinade",

    // jabu MQ
	"Jabu Jabus Belly MQ Map Chest": "location.jabujabu_mq.c_map",
    "Jabu Jabus Belly MQ First Room Side Chest": "location.jabujabu_mq.c_entry_side_chest",
	"Jabu Jabus Belly MQ Second Room Lower Chest": "location.jabujabu_mq.c_second_room_lower_chest",
    "Jabu Jabus Belly MQ Second Room Upper Chest": "location.jabujabu_mq.c_second_room_upper",
    "Jabu Jabus Belly MQ Compass Chest": "location.jabujabu_mq.c_compass",
    "Jabu Jabus Belly MQ Basement Near Vines Chest": "location.jabujabu_mq.c_basement_south_chest",
    "Jabu Jabus Belly MQ Basement Near Switches Chest": "location.jabujabu_mq.c_basement_north_chest",
    "Jabu Jabus Belly MQ Boomerang Room Small Chest": "location.jabujabu_mq.c_boomerang_room_small_chest",
    "Jabu Jabus Belly MQ Boomerang Chest": "location.jabujabu_mq.c_boomerang_chest",
    "Jabu Jabus Belly MQ GS Boomerang Chest Room": "location.jabujabu_mq.s_boomerang_room",
	"Jabu Jabus Belly MQ Falling Like Like Room Chest": "location.jabujabu_mq.c_like_like_chest",
    "Jabu Jabus Belly MQ GS Tailpasaran Room": "location.jabujabu_mq.s_electric_worm_room",
    "Jabu Jabus Belly MQ GS Invisible Enemies Room": "location.jabujabu_mq.s_invisible_enemies_room",
	"Jabu Jabus Belly MQ Cow" : "location.jabujabu_mq.c_cow",
	"Jabu Jabus Belly MQ Near Boss Chest": "location.jabujabu_mq.c_near_boss",
    "Jabu Jabus Belly MQ GS Near Boss": "location.jabujabu_mq.s_near_boss_gs",

    // botw
    "Bottom of the Well Freestanding Key": "location.well.c_coffin_key",
    "Bottom of the Well Front Left Fake Wall Chest": "location.well.c_front_left_hidden_wall",
    "Bottom of the Well Front Center Bombable Chest": "location.well.c_front_center_bombable",
    "Bottom of the Well Right Bottom Fake Wall Chest": "location.well.c_right_bottom_hidden_wall",
    "Bottom of the Well Back Left Bombable Chest": "location.well.c_back_left_bombable",
    "Bottom of the Well Invisible Chest": "location.well.c_invisible",
    "Bottom of the Well Underwater Front Chest": "location.well.c_underwater_front",
    "Bottom of the Well Underwater Left Chest": "location.well.c_underwater_left",
    "Bottom of the Well Compass Chest": "location.well.c__center_large",
    "Bottom of the Well Map Chest": "location.well.c_basement_ches",
    "Bottom of the Well Fire Keese Chest": "location.well.c_locked_pits",
    "Bottom of the Well Center Skulltula Chest": "location.well.c_center_small",
    "Bottom of the Well Like Like Chest": "location.well.c_behind_right_grate",
    "Bottom of the Well Lens of Truth Chest": "location.well.c_defeat_boss",
    "Bottom of the Well GS West Inner Room": "location.well.s_west_inner_child",
    "Bottom of the Well GS East Inner Room": "location.well.s_east_inner_child",
    "Bottom of the Well GS Like Like Cage": "location.well.s_locked_pits_child",

    // botw MQ
    "Bottom of the Well MQ Dead Hand Freestanding Key": "location.well_mq.c_deadhand_freestanding_key",
    "Bottom of the Well MQ East Inner Room Freestanding Key": "location.well_mq.c_east_inner_freestanding_key",
    "Bottom of the Well MQ Compass Chest": "location.well_mq.c_compass_chest",
    "Bottom of the Well MQ Map Chest": "location.well_mq.c_map_chest",
    "Bottom of the Well MQ Lens of Truth Chest": "location.well_mq.c_lens_chest",
    "Bottom of the Well MQ GS Basement": "location.well_mq.s_basement",
    "Bottom of the Well MQ GS West Inner Room": "location.well_mq.s_west_inner",
    "Bottom of the Well MQ GS Coffin Room": "location.well_mq.s_coffin_room",
	
	// ice cavern
	"Ice Cavern Map Chest": "location.ice_cavern.c_map",
	"Ice Cavern Compass Chest": "location.ice_cavern.c_compass",
	"Ice Cavern Iron Boots Chest": "location.ice_cavern.c_boots",
	"Sheik in Ice Cavern": "location.ice_cavern.c_sheik",
	"Ice Cavern Freestanding PoH": "location.ice_cavern.c_hp",
	"Ice Cavern GS Spinning Scythe Room": "location.ice_cavern.s_ice_blades_adult",
	"Ice Cavern GS Heart Piece Room": "location.ice_cavern.s_compass_room_adult",
	"Ice Cavern GS Push Block Room": "location.ice_cavern.s_block_puzzle_adult",
	
	// ice cavern MQ
	"Ice Cavern MQ Map Chest": "location.ice_cavern_mq.c_map",
	"Ice Cavern MQ Iron Boots Chest": "location.ice_cavern_mq.c_boots",
	"Ice Cavern MQ GS Ice Block": "location.ice_cavern_mq.s_under_ice_block",
	"Ice Cavern MQ GS Scarecrow": "location.ice_cavern_mq.s_scarecrow",
	"Ice Cavern MQ Compass Chest": "location.ice_cavern_mq.c_compass",
	"Ice Cavern MQ Freestanding PoH": "location.ice_cavern_mq.c_hp",
	"Ice Cavern MQ GS Red Ice": "location.ice_cavern_mq.s_hp_room",
	
	// gtg
	"Gerudo Training Ground Lobby Left Chest": "location.training_grounds.c_lobby_left",
	"Gerudo Training Ground Lobby Right Chest": "location.training_grounds.c_lobby_right",
	"Gerudo Training Ground Stalfos Chest": "location.training_grounds.c_stalfos",
	"Gerudo Training Ground Beamos Chest": "location.training_grounds.c_beamos",
	"Gerudo Training Ground Hidden Ceiling Chest": "location.training_grounds.c_hidden_ceiling",
	"Gerudo Training Ground Maze Path First Chest": "location.training_grounds.c_maze_1",
	"Gerudo Training Ground Maze Path Second Chest": "location.training_grounds.c_maze_2",
	"Gerudo Training Ground Maze Path Third Chest": "location.training_grounds.c_maze_3",
	"Gerudo Training Ground Maze Path Final Chest": "location.training_grounds.c_maze_final",
	"Gerudo Training Ground Maze Right Central Chest": "location.training_grounds.c_maze_right_central",
	"Gerudo Training Ground Maze Right Side Chest": "location.training_grounds.c_maze_right",
	"Gerudo Training Ground Freestanding Key": "location.training_grounds.c_maze_right_key",
	"Gerudo Training Ground Underwater Silver Rupee Chest": "location.training_grounds.c_underwater_silver",
	"Gerudo Training Ground Hammer Room Clear Chest": "location.training_grounds.c_hammer_room_clear",
	"Gerudo Training Ground Hammer Room Switch Chest": "location.training_grounds.c_hammer_room_switch",
	"Gerudo Training Ground Eye Statue Chest": "location.training_grounds.c_eye_statue",
	"Gerudo Training Ground Near Scarecrow Chest": "location.training_grounds.c_scarecrow",
	"Gerudo Training Ground Before Heavy Block Chest": "location.training_grounds.c_heavy_block_before",
	"Gerudo Training Ground Heavy Block First Chest": "location.training_grounds.c_heavy_block_1",
	"Gerudo Training Ground Heavy Block Second Chest": "location.training_grounds.c_heavy_block_2",
	"Gerudo Training Ground Heavy Block Third Chest": "location.training_grounds.c_heavy_block_3",
	"Gerudo Training Ground Heavy Block Fourth Chest": "location.training_grounds.c_heavy_block_4",
	
	// gtg MQ
	"Gerudo Training Ground MQ Lobby Left Chest": "location.training_grounds_mq.c_lobby_left",
	"Gerudo Training Ground MQ Lobby Right Chest": "location.training_grounds_mq.c_lobby_right",
	"Gerudo Training Ground MQ Hidden Ceiling Chest": "location.training_grounds_mq.c_hidden_ceiling",
	"Gerudo Training Ground MQ Maze Path First Chest": "location.training_grounds_mq.c_maze_1",
	"Gerudo Training Ground MQ Maze Path Second Chest": "location.training_grounds_mq.c_maze_2",
	"Gerudo Training Ground MQ Maze Path Third Chest": "location.training_grounds_mq.c_maze_3",
	"Gerudo Training Ground MQ Dinolfos Chest": "location.training_grounds_mq.c_dinolfos",
	"Gerudo Training Ground MQ Underwater Silver Rupee Chest": "location.training_grounds_mq.c_underwater",
	"Gerudo Training Ground MQ First Iron Knuckle Chest": "location.training_grounds_mq.c_first_iron_knuckle",
	"Gerudo Training Ground MQ Before Heavy Block Chest": "location.training_grounds_mq.c_before_heavy_block",
	"Gerudo Training Ground MQ Heavy Block Chest": "location.training_grounds_mq.c_heavy_block",
	"Gerudo Training Ground MQ Eye Statue Chest": "location.training_grounds_mq.c_eye_statue",
	"Gerudo Training Ground MQ Second Iron Knuckle Chest": "location.training_grounds_mq.c_second_iron_knuckle",
	"Gerudo Training Ground MQ Flame Circle Chest": "location.training_grounds_mq.c_flame_circle",
	"Gerudo Training Ground MQ Maze Right Central Chest": "location.training_grounds_mq.c_maze_right_central",
	"Gerudo Training Ground MQ Maze Right Side Chest": "location.training_grounds_mq.c_maze_right_side",
	"Gerudo Training Ground MQ Ice Arrows Chest": "location.training_grounds_mq.c_ice_arrows",

    // forest
	"Forest Temple First Room Chest": "location.temple_forest.c_entrance",
	"Forest Temple First Stalfos Chest": "location.temple_forest.c_behind_lobby",
	"Forest Temple GS First Room": "location.temple_forest.s_entrance_adult",
	"Forest Temple GS Lobby": "location.temple_forest.s_lobby_adult",
	"Forest Temple GS Level Island Courtyard": "location.temple_forest.s_pillars_adult",
	"Forest Temple Raised Island Courtyard Chest": "location.temple_forest.c_outside_hookshot",
	"Forest Temple GS Raised Island Courtyard": "location.temple_forest.s_outside_hookshot_adult",
	"Forest Temple Well Chest": "location.temple_forest.c_well",
	"Forest Temple Map Chest": "location.temple_forest.c_map",
	"Forest Temple Falling Ceiling Room Chest": "location.temple_forest.c_falling_room",
	"Forest Temple Eye Switch Chest": "location.temple_forest.c_block_push",
	"Forest Temple Boss Key Chest": "location.temple_forest.c_boss_key",
	"Forest Temple Floormaster Chest": "location.temple_forest.c_floormaster",
	"Forest Temple Bow Chest": "location.temple_forest.c_bow",
	"Forest Temple Red Poe Chest": "location.temple_forest.c_poe_red",
	"Forest Temple Blue Poe Chest": "location.temple_forest.c_poe_blue",
	"Forest Temple Basement Chest": "location.temple_forest.c_near_boss",
	"Forest Temple GS Basement": "location.temple_forest.s_near_boss_adult",
	
	"Forest Temple Phantom Ganon Heart": "location.temple_forest.c_phantomganon",
	"Phantom Ganon": "location.temple_forest.c_phantomganon",

    // forest MQ
	"Forest Temple MQ First Room Chest": "location.temple_forest_mq.c_entrance",
	"Forest Temple MQ GS First Hallway": "location.temple_forest_mq.s_first_hallway_adult",
	"Forest Temple MQ Wolfos Chest": "location.temple_forest_mq.c_behind_lobby",
	"Forest Temple MQ GS Block Push Room": "location.temple_forest_mq.s_block_push_room_adult",
	"Forest Temple MQ Boss Key Chest": "location.temple_forest_mq.c_boss_key",
	"Forest Temple MQ Redead Chest": "location.temple_forest_mq.c_redead_chest",
	"Forest Temple MQ GS Level Island Courtyard": "location.temple_forest_mq.s_outdoor_west_adult",
	"Forest Temple MQ Well Chest": "location.temple_forest_mq.c_well_chest",
	"Forest Temple MQ GS Raised Island Courtyard": "location.temple_forest_mq.s_outdoor_east_adult",
	"Forest Temple MQ GS Well": "location.temple_forest_mq.s_well_adult",
	"Forest Temple MQ Raised Island Courtyard Upper Chest": "location.temple_forest_mq.c_ne_outdoors_upper",
	"Forest Temple MQ Raised Island Courtyard Lower Chest": "location.temple_forest_mq.c_ne_outdoors_lower",
	"Forest Temple MQ Bow Chest": "location.temple_forest_mq.c_bow",
	"Forest Temple MQ Map Chest": "location.temple_forest_mq.c_map",
	"Forest Temple MQ Compass Chest": "location.temple_forest_mq.c_compass",
	"Forest Temple MQ Falling Ceiling Room Chest": "location.temple_forest_mq.c_falling_room",
	"Forest Temple MQ Basement Chest": "location.temple_forest_mq.c_near_boss",
	

    // fire
	"Fire Temple Near Boss Chest": "location.temple_fire.c_near_boss",
	"Fire Temple Flare Dancer Chest": "location.temple_fire.c_dancer",
	"Fire Temple Boss Key Chest": "location.temple_fire.c_boss_key",
	"Fire Temple GS Boss Key Loop": "location.temple_fire.s_near_boss_key_adult",
	"Fire Temple Big Lava Room Lower Open Door Chest": "location.temple_fire.c_big_lava_open",
	"Fire Temple Big Lava Room Blocked Door Chest": "location.temple_fire.c_big_lava_bomb",
	"Fire Temple GS Song of Time Room": "location.temple_fire.s_big_lava_time_block_adult",
	"Fire Temple Boulder Maze Lower Chest": "location.temple_fire.c_boulder_maze_lower",
	"Fire Temple Boulder Maze Upper Chest": "location.temple_fire.c_boulder_maze_upper",
	"Fire Temple Boulder Maze Side Room Chest": "location.temple_fire.c_boulder_maze_side",
	"Fire Temple Boulder Maze Shortcut Chest": "location.temple_fire.c_boulder_maze_bomb",
	"Fire Temple Scarecrow Chest": "location.temple_fire.c_scarecrow",
	"Fire Temple Map Chest": "location.temple_fire.c_map",
	"Fire Temple Compass Chest": "location.temple_fire.c_compass",
	"Fire Temple GS Boulder Maze": "location.temple_fire.s_boulder_maze_bombable_adult",
	"Fire Temple GS Scarecrow Climb": "location.temple_fire.s_boulder_maze_scarecrow1_adult",
	"Fire Temple GS Scarecrow Top": "location.temple_fire.s_boulder_maze_scarecrow2_adult",
	"Fire Temple Highest Goron Chest": "location.temple_fire.c_highest_goron",
	"Fire Temple Megaton Hammer Chest": "location.temple_fire.c_hammer",
	
	
	"Fire Temple Volvagia Heart": "location.temple_fire.c_volvagia",
	"Volvagia":"location.temple_fire.c_volvagia",

    // fire MQ
	"Fire Temple MQ Map Room Side Chest": "location.temple_fire_mq.c_map_room_small_chest",
	"Fire Temple MQ Near Boss Chest": "location.temple_fire_mq.c_chest_near_boss",
	"Fire Temple MQ Megaton Hammer Chest": "location.temple_fire_mq.c_megaton_hammer",
	"Fire Temple MQ Map Chest": "location.temple_fire_mq.c_map",
	"Fire Temple MQ Boss Key Chest": "location.temple_fire_mq.c_boss_key",
	"Fire Temple MQ Big Lava Room Blocked Door Chest": "location.temple_fire_mq.c_big_lava_bomb",
	"Fire Temple MQ GS Big Lava Room Open Door": "location.temple_fire_mq.s_big_lava_adult",
	"Fire Temple MQ Lizalfos Maze Lower Chest": "location.temple_fire_mq.c_boulder_maze_lower",
	"Fire Temple MQ Lizalfos Maze Side Room Chest": "location.temple_fire_mq.c_boulder_maze_side",
	"Fire Temple MQ Lizalfos Maze Upper Chest": "location.temple_fire_mq.c_boulder_maze_upper",
	"Fire Temple MQ Compass Chest": "location.temple_fire_mq.c_compass",
	"Fire Temple MQ GS Skull On Fire": "location.temple_fire_mq.s_east_tower_top_adult",
	"Fire Temple MQ Freestanding Key": "location.temple_fire_mq.c_freestanding_key",
	"Fire Temple MQ Chest On Fire": "location.temple_fire_mq.c_west_tower_top",
	"Fire Temple MQ GS Fire Wall Maze Side Room": "location.temple_fire_mq.s_fire_wall_maze_side_adult",
	"Fire Temple MQ GS Fire Wall Maze Center": "location.temple_fire_mq.s_fire_wall_maze_center_adult",
	"Fire Temple MQ GS Above Fire Wall Maze": "location.temple_fire_mq.s_above_fire_wall_maze_adult",

    // water
	"Water Temple Map Chest": "location.temple_water.c_map",
	"Water Temple Compass Chest": "location.temple_water.c_compass",
	"Water Temple Torches Chest": "location.temple_water.c_torches",
	"Water Temple Central Bow Target Chest": "location.temple_water.c_central_bow",
	"Water Temple GS Behind Gate": "location.temple_water.s_lowest_level_south_adult",
	"Water Temple Boss Key Chest": "location.temple_water.c_boss_key",
	"Water Temple GS Near Boss Key Chest": "location.temple_water.s_near_boss_key_adult",
	"Water Temple Cracked Wall Chest": "location.temple_water.c_cracked_wall",
	"Water Temple Dragon Chest": "location.temple_water.c_chest_dragon",
	"Water Temple Central Pillar Chest": "location.temple_water.c_center_pillar",
	"Water Temple GS Central Pillar": "location.temple_water.s_center_pillar_adult",
	"Water Temple Longshot Chest": "location.temple_water.c_dark_link",
	"Water Temple River Chest": "location.temple_water.c_river",
	"Water Temple GS River": "location.temple_water.s_river_adult",
	"Water Temple GS Falling Platform Room": "location.temple_water.s_big_waterfall_adult",
	
	"Water Temple Morpha Heart": "location.temple_water.c_morpha",
	"Morpha": "location.temple_water.c_morpha",

    // water MQ
	"Water Temple MQ Map Chest": "location.temple_water_mq.c_map",
	"Water Temple MQ Central Pillar Chest": "location.temple_water_mq.c_central_pillar",
	"Water Temple MQ Compass Chest": "location.temple_water_mq.c_compass",
	"Water Temple MQ Longshot Chest": "location.temple_water_mq.c_longshot",
	"Water Temple MQ GS Lizalfos Hallway": "location.temple_water_mq.s_lizalfos_hallway_adult",
	"Water Temple MQ GS Before Upper Water Switch": "location.temple_water_mq.s_before_upper_water_switch",
	"Water Temple MQ Boss Key Chest": "location.temple_water_mq.c_boss_key",
	"Water Temple MQ GS River": "location.temple_water_mq.s_serpent_river_adult",
	"Water Temple MQ Freestanding Key": "location.temple_water_mq.c_freestanding_key",
	"Water Temple MQ GS Triple Wall Torch": "location.temple_water_mq.s_south_basement_adult",
	"Water Temple MQ GS Freestanding Key Area": "location.temple_water_mq.s_north_basement_adult",
	

    // shadow
	"Shadow Temple Map Chest": "location.temple_shadow.c_map",
	"Shadow Temple Hover Boots Chest": "location.temple_shadow.c_boots",
	"Shadow Temple Compass Chest": "location.temple_shadow.c_compass",
	"Shadow Temple Early Silver Rupee Chest": "location.temple_shadow.c_early_silver",
	"Shadow Temple Invisible Blades Visible Chest": "location.temple_shadow.c_invisible_blades_visible",
	"Shadow Temple Invisible Blades Invisible Chest": "location.temple_shadow.c_invisible_blades_invisible",
	"Shadow Temple Falling Spikes Lower Chest": "location.temple_shadow.c_falling_spikes_lower",
	"Shadow Temple Falling Spikes Upper Chest": "location.temple_shadow.c_falling_spikes_upper",
	"Shadow Temple Falling Spikes Switch Chest": "location.temple_shadow.c_falling_spikes_switch",
	"Shadow Temple Invisible Spikes Chest": "location.temple_shadow.c_invisible_spikes",
	"Shadow Temple Freestanding Key": "location.temple_shadow.c_giant_pot",
	"Shadow Temple GS Like Like Room": "location.temple_shadow.s_invisible_blade_adult",
	"Shadow Temple GS Falling Spikes Room": "location.temple_shadow.s_falling_spikes_adult",
	"Shadow Temple GS Single Giant Pot": "location.temple_shadow.s_behind_giant_pot_adult",
	"Shadow Temple Wind Hint Chest": "location.temple_shadow.c_wind_hint",
	"Shadow Temple After Wind Enemy Chest": "location.temple_shadow.c_after_wind_enemy",
	"Shadow Temple After Wind Hidden Chest": "location.temple_shadow.c_after_wind_hidden",
	"Shadow Temple GS Near Ship": "location.temple_shadow.s_boat_adult",
	"Shadow Temple Spike Walls Left Chest": "location.temple_shadow.c_spike_walls",
	"Shadow Temple Boss Key Chest": "location.temple_shadow.c_boss_key",
	"Shadow Temple Invisible Floormaster Chest": "location.temple_shadow.c_hidden_floormaster",
	"Shadow Temple GS Triple Giant Pot": "location.temple_shadow.s_behind_giant_pots_adult",
	
	"Shadow Temple Bongo Bongo Heart": "location.temple_shadow.c_bongobongo",
	"Bongo Bongo": "location.temple_shadow.c_bongobongo",

    // shadow MQ
	"Shadow Temple MQ Compass Chest": "location.temple_shadow_mq.c_compass",
	"Shadow Temple MQ Hover Boots Chest": "location.temple_shadow_mq.c_boots",
	"Shadow Temple MQ Map Chest": "location.temple_shadow_mq.c_map",
	"Shadow Temple MQ Early Gibdos Chest": "location.temple_shadow_mq.c_early_gibdos",
	"Shadow Temple MQ Near Ship Invisible Chest": "location.temple_shadow_mq.c_near_ship_invisible",
	"Shadow Temple MQ Invisible Blades Visible Chest": "location.temple_shadow_mq.c_invisible_blades_visible",
	"Shadow Temple MQ Invisible Blades Invisible Chest": "location.temple_shadow_mq.c_invisible_blades_invisible",
	"Shadow Temple MQ Beamos Silver Rupees Chest": "location.temple_shadow_mq.c_beamos_silver",
	"Shadow Temple MQ Falling Spikes Lower Chest": "location.temple_shadow_mq.c_falling_spikes_lower",
	"Shadow Temple MQ Falling Spikes Upper Chest": "location.temple_shadow_mq.c_falling_spikes_upper",
	"Shadow Temple MQ Falling Spikes Switch Chest": "location.temple_shadow_mq.c_falling_spikes_switch",
	"Shadow Temple MQ Invisible Spikes Chest": "location.temple_shadow_mq.c_invisible_spikes",
	"Shadow Temple MQ Stalfos Room Chest": "location.temple_shadow_mq.c_stalfos_room",
	"Shadow Temple MQ GS Falling Spikes Room": "location.temple_shadow_mq.s_crusher_room_adult",
	"Shadow Temple MQ Wind Hint Chest": "location.temple_shadow_mq.c_wind_hint",
	"Shadow Temple MQ After Wind Enemy Chest": "location.temple_shadow_mq.c_after_wind_enemy",
	"Shadow Temple MQ After Wind Hidden Chest": "location.temple_shadow_mq.c_after_wind_hidden",
	"Shadow Temple MQ GS Wind Hint Room": "location.temple_shadow_mq.s_wind_hint_adult",
	"Shadow Temple MQ GS After Wind": "location.temple_shadow_mq.s_after_wind_adult",
	"Shadow Temple MQ GS After Ship": "location.temple_shadow_mq.s_after_ship_adult",
	"Shadow Temple MQ GS Near Boss": "location.temple_shadow_mq.s_near_boss_adult",
	"Shadow Temple MQ Spike Walls Left Chest": "location.temple_shadow_mq.c_spike_walls_left",
	"Shadow Temple MQ Boss Key Chest": "location.temple_shadow_mq.c_boss_key",
	"Shadow Temple MQ Bomb Flower Chest": "location.temple_shadow_mq.c_bomb_flower_chest",
	"Shadow Temple MQ Freestanding Key": "location.temple_shadow_mq.c_freestanding_key",

    // spirit
	"Spirit Temple Child Bridge Chest": "location.temple_spirit.c_child_left",
	"Spirit Temple Child Early Torches Chest": "location.temple_spirit.c_child_right",
	"Spirit Temple GS Metal Fence": "location.temple_spirit.s_childsegment_left",
	"Spirit Temple Child Climb North Chest": "location.temple_spirit.c_child_climb_north",
	"Spirit Temple Child Climb East Chest": "location.temple_spirit.c_child_climb_east",
	"Spirit Temple GS Sun on Floor Room": "location.temple_spirit.s_childsegment_sun_room",
	"Spirit Temple Compass Chest": "location.temple_spirit.c_compass",
	"Spirit Temple Early Adult Right Chest": "location.temple_spirit.c_early_adult_right",
	"Spirit Temple First Mirror Left Chest": "location.temple_spirit.c_first_mirror_left",
	"Spirit Temple First Mirror Right Chest": "location.temple_spirit.c_first_mirror_right",
	"Spirit Temple GS Boulder Room": "location.temple_spirit.s_rolling_boulders_time_block_adult",
	"Spirit Temple Map Chest": "location.temple_spirit.c_map",
	"Spirit Temple Sun Block Room Chest": "location.temple_spirit.c_sun_block",
	"Spirit Temple Statue Room Hand Chest": "location.temple_spirit.c_statue_hand",
	"Spirit Temple Statue Room Northeast Chest": "location.temple_spirit.c_main_room_NE",
	"Spirit Temple GS Hall After Sun Block Room": "location.temple_spirit.s_childsegment_before_iron_knight",
	"Spirit Temple GS Lobby": "location.temple_spirit.s_coloss_room_adult",
	"Spirit Temple Silver Gauntlets Chest": "location.temple_spirit.c_gauntlets",
	"Spirit Temple Mirror Shield Chest": "location.temple_spirit.c_shield",
	"Spirit Temple Near Four Armos Chest": "location.temple_spirit.c_near_four_armos",
	"Spirit Temple Hallway Left Invisible Chest": "location.temple_spirit.c_hallway_left_invisible",
	"Spirit Temple Hallway Right Invisible Chest": "location.temple_spirit.c_hallway_right_invisible",
	"Spirit Temple Boss Key Chest": "location.temple_spirit.c_boss_key",
	"Spirit Temple Topmost Chest": "location.temple_spirit.c_topmost",
	
	
	"Spirit Temple Twinrova Heart": "location.temple_spirit.c_twinrova",
	"Twinrova": "location.temple_spirit.c_twinrova",
	
    // spirit MQ
	"Spirit Temple MQ Entrance Front Left Chest": "location.temple_spirit_mq.c_entrance_front_left",
	"Spirit Temple MQ Entrance Back Left Chest": "location.temple_spirit_mq.c_entrance_back_left",
	"Spirit Temple MQ Entrance Back Right Chest": "location.temple_spirit_mq.c_entrance_back_right",
	"Spirit Temple MQ Child Hammer Switch Chest": "location.temple_spirit_mq.c_child_center",
	"Spirit Temple MQ Map Room Enemy Chest": "location.temple_spirit_mq.c_child_left",
	"Spirit Temple MQ Map Chest": "location.temple_spirit_mq.c_map",
	"Spirit Temple MQ Silver Block Hallway Chest": "location.temple_spirit_mq.c_silver_block_hallway",
	"Spirit Temple MQ Child Climb South Chest": "location.temple_spirit_mq.c_child_climb_south",
	"Spirit Temple MQ Statue Room Lullaby Chest": "location.temple_spirit_mq.c_lower_ne_main_room",
	"Spirit Temple MQ Statue Room Invisible Chest": "location.temple_spirit_mq.c_upper_ne_main_room",
	"Spirit Temple MQ Beamos Room Chest": "location.temple_spirit_mq.c_beamos_room",
	"Spirit Temple MQ Chest Switch Chest": "location.temple_spirit_mq.c_dinolfos_ice",
	"Spirit Temple MQ Boss Key Chest": "location.temple_spirit_mq.c_boss_key",
	"Spirit Temple MQ GS Nine Thrones Room West": "location.temple_spirit_mq.s_iron_knuckles_west",
	"Spirit Temple MQ GS Nine Thrones Room North": "location.temple_spirit_mq.s_iron_knuckles_north",
	"Spirit Temple MQ Child Climb North Chest": "location.temple_spirit_mq.c_child_climb_north",
	"Spirit Temple MQ Compass Chest": "location.temple_spirit_mq.c_compass_chest",
	"Spirit Temple MQ Sun Block Room Chest": "location.temple_spirit_mq.c_sun_block_room",
	"Spirit Temple MQ GS Sun Block Room": "location.temple_spirit_mq.s_sun_block_room",
	"Spirit Temple MQ Leever Room Chest": "location.temple_spirit_mq.c_lower_adult_left",
	"Spirit Temple MQ Symphony Room Chest": "location.temple_spirit_mq.c_lower_adult_right",
	"Spirit Temple MQ Entrance Front Right Chest": "location.temple_spirit_mq.c_entrance_front_right",
	"Spirit Temple MQ GS Leever Room": "location.temple_spirit_mq.s_lower_adult_left",
	"Spirit Temple MQ GS Symphony Room": "location.temple_spirit_mq.s_lower_adult_right",
	"Spirit Temple MQ Mirror Puzzle Invisible Chest": "location.temple_spirit_mq.c_mirror_puzzle_invisible",

    // ganons castle
	"Ganons Castle Deku Scrub Center-Left": "location.castle_ganon.c_under_bridge_salesman_1",
	"Ganons Castle Deku Scrub Center-Right": "location.castle_ganon.c_under_bridge_salesman_2",
	"Ganons Castle Deku Scrub Right": "location.castle_ganon.c_under_bridge_salesman_3",
	"Ganons Castle Deku Scrub Left": "location.castle_ganon.c_under_bridge_salesman_4",
	"Ganons Castle Forest Trial Chest": "location.castle_ganon.c_forest_trial",
	"Ganons Castle Water Trial Left Chest": "location.castle_ganon.c_water_trial_left",
	"Ganons Castle Water Trial Right Chest": "location.castle_ganon.c_water_trial_right",
	"Ganons Castle Shadow Trial Front Chest": "location.castle_ganon.c_shadow_trial_first",
	"Ganons Castle Shadow Trial Golden Gauntlets Chest": "location.castle_ganon.c_shadow_trial_second",
	"Ganons Castle Spirit Trial Crystal Switch Chest": "location.castle_ganon.c_spirit_trial_first",
	"Ganons Castle Spirit Trial Invisible Chest": "location.castle_ganon.c_spirit_trial_second",
	"Ganons Castle Light Trial First Left Chest": "location.castle_ganon.c_light_trial_first_left",
	"Ganons Castle Light Trial Second Left Chest": "location.castle_ganon.c_light_trial_second_left",
	"Ganons Castle Light Trial Third Left Chest": "location.castle_ganon.c_light_trial_third_left",
	"Ganons Castle Light Trial First Right Chest": "location.castle_ganon.c_light_trial_first_right",
	"Ganons Castle Light Trial Second Right Chest": "location.castle_ganon.c_light_trial_second_right",
	"Ganons Castle Light Trial Third Right Chest": "location.castle_ganon.c_light_trial_third_right",
	"Ganons Castle Light Trial Invisible Enemies Chest": "location.castle_ganon.c_light_trail_invisible_enemies",
	"Ganons Castle Light Trial Lullaby Chest": "location.castle_ganon.c_light_trial_lullaby",
	
    "Ganons Tower Boss Key Chest": "location.castle_ganon.c_boss_key",
	"Ganondorf Hint": "location.castle_ganon.c_boss",
	"Ganon": "location.castle_ganon.c_boss",
	
	// ganons castle MQ
	"Ganons Castle MQ Deku Scrub Center-Left": "location.castle_ganon_mq.c_under_bridge_salesman_1",
    "Ganons Castle MQ Deku Scrub Center": "location.castle_ganon_mq.c_under_bridge_salesman_2",
    "Ganons Castle MQ Deku Scrub Center-Right": "location.castle_ganon_mq.c_under_bridge_salesman_3",
    "Ganons Castle MQ Deku Scrub Left": "location.castle_ganon_mq.c_under_bridge_salesman_4",
    "Ganons Castle MQ Deku Scrub Right": "location.castle_ganon_mq.c_under_bridge_salesman_5",
	"Ganons Castle MQ Forest Trial Eye Switch Chest": "location.castle_ganon_mq.c_forest_trial_first",
    "Ganons Castle MQ Forest Trial Frozen Eye Switch Chest": "location.castle_ganon_mq.c_forest_trial_second",
    "Ganons Castle MQ Forest Trial Freestanding Key": "location.castle_ganon_mq.c_forest_trial_key",
	"Ganons Castle MQ Water Trial Chest": "location.castle_ganon_mq.c_water_trial",
	"Ganons Castle MQ Shadow Trial Bomb Flower Chest": "location.castle_ganon_mq.c_shadow_trial_first",
	"Ganons Castle MQ Shadow Trial Eye Switch Chest": "location.castle_ganon_mq.c_shadow_trial_second",
	"Ganons Castle MQ Spirit Trial First Chest": "location.castle_ganon_mq.c_spirit_trial_first",
    "Ganons Castle MQ Spirit Trial Invisible Chest": "location.castle_ganon_mq.c_spirit_trial_second",
	"Ganons Castle MQ Spirit Trial Sun Front Left Chest": "location.castle_ganon_mq.c_spirit_sun_front_left",
	"Ganons Castle MQ Spirit Trial Sun Back Left Chest": "location.castle_ganon_mq.c_spirit_sun_back_left",
	"Ganons Castle MQ Spirit Trial Golden Gauntlets Chest": "location.castle_ganon_mq.c_spirit_golden",
	"Ganons Castle MQ Spirit Trial Sun Back Right Chest": "location.castle_ganon_mq.c_spirit_sun_back_right",
	"Ganons Castle MQ Light Trial Lullaby Chest": "location.castle_ganon_mq.c_light_trial_lullaby",
	
	// shops
	"KF Shop Item 1": "location.kokiri.m_shop_1",
    "KF Shop Item 2": "location.kokiri.m_shop_2",
    "KF Shop Item 3": "location.kokiri.m_shop_3",
    "KF Shop Item 4": "location.kokiri.m_shop_4",
    "KF Shop Item 5": "location.kokiri.m_shop_5",
    "KF Shop Item 6": "location.kokiri.m_shop_6",
    "KF Shop Item 7": "location.kokiri.m_shop_7",
    "KF Shop Item 8": "location.kokiri.m_shop_8",
	
	"Market Bazaar Item 1": "location.castle_town.m_shop_1",
    "Market Bazaar Item 2": "location.castle_town.m_shop_2",
    "Market Bazaar Item 3": "location.castle_town.m_shop_3",
    "Market Bazaar Item 4": "location.castle_town.m_shop_4",
    "Market Bazaar Item 5": "location.castle_town.m_shop_5",
    "Market Bazaar Item 6": "location.castle_town.m_shop_6",
    "Market Bazaar Item 7": "location.castle_town.m_shop_7",
    "Market Bazaar Item 8": "location.castle_town.m_shop_8",
	
	"Market Potion Shop Item 1": "location.castle_town.m_shop2_1",
    "Market Potion Shop Item 2": "location.castle_town.m_shop2_2",
    "Market Potion Shop Item 3": "location.castle_town.m_shop2_3",
    "Market Potion Shop Item 4": "location.castle_town.m_shop2_4",
    "Market Potion Shop Item 5": "location.castle_town.m_shop2_5",
    "Market Potion Shop Item 6": "location.castle_town.m_shop2_6",
    "Market Potion Shop Item 7": "location.castle_town.m_shop2_7",
    "Market Potion Shop Item 8": "location.castle_town.m_shop2_8",
	
	"Market Bombchu Shop Item 1": "location.castle_town.m_shop3_1",
    "Market Bombchu Shop Item 2": "location.castle_town.m_shop3_2",
    "Market Bombchu Shop Item 3": "location.castle_town.m_shop3_3",
    "Market Bombchu Shop Item 4": "location.castle_town.m_shop3_4",
    "Market Bombchu Shop Item 5": "location.castle_town.m_shop3_5",
    "Market Bombchu Shop Item 6": "location.castle_town.m_shop3_6",
    "Market Bombchu Shop Item 7": "location.castle_town.m_shop3_7",
    "Market Bombchu Shop Item 8": "location.castle_town.m_shop3_8",
	
	"Kak Bazaar Item 1": "location.kakariko.m_shop_1",
    "Kak Bazaar Item 2": "location.kakariko.m_shop_2",
    "Kak Bazaar Item 3": "location.kakariko.m_shop_3",
    "Kak Bazaar Item 4": "location.kakariko.m_shop_4",
    "Kak Bazaar Item 5": "location.kakariko.m_shop_5",
    "Kak Bazaar Item 6": "location.kakariko.m_shop_6",
    "Kak Bazaar Item 7": "location.kakariko.m_shop_7",
    "Kak Bazaar Item 8": "location.kakariko.m_shop_8",
	
	"Kak Potion Shop Item 1": "location.kakariko.m_shop2_1",
    "Kak Potion Shop Item 2": "location.kakariko.m_shop2_2",
    "Kak Potion Shop Item 3": "location.kakariko.m_shop2_3",
    "Kak Potion Shop Item 4": "location.kakariko.m_shop2_4",
    "Kak Potion Shop Item 5": "location.kakariko.m_shop2_5",
    "Kak Potion Shop Item 6": "location.kakariko.m_shop2_6",
    "Kak Potion Shop Item 7": "location.kakariko.m_shop2_7",
    "Kak Potion Shop Item 8": "location.kakariko.m_shop2_8",
	
	"GC Shop Item 1": "location.goron.m_shop_1",
    "GC Shop Item 2": "location.goron.m_shop_2",
    "GC Shop Item 3": "location.goron.m_shop_3",
    "GC Shop Item 4": "location.goron.m_shop_4",
    "GC Shop Item 5": "location.goron.m_shop_5",
    "GC Shop Item 6": "location.goron.m_shop_6",
    "GC Shop Item 7": "location.goron.m_shop_7",
    "GC Shop Item 8": "location.goron.m_shop_8",
	
	"ZD Shop Item 1": "location.zoras.m_shop_1",
    "ZD Shop Item 2": "location.zoras.m_shop_2",
    "ZD Shop Item 3": "location.zoras.m_shop_3",
    "ZD Shop Item 4": "location.zoras.m_shop_4",
    "ZD Shop Item 5": "location.zoras.m_shop_5",
    "ZD Shop Item 6": "location.zoras.m_shop_6",
    "ZD Shop Item 7": "location.zoras.m_shop_7",
    "ZD Shop Item 8": "location.zoras.m_shop_8",

    // options
	"shuffle_weird_egg": "option.shuffle_egg",
	"shuffle_dungeon_entrances": "option.shuffle_dungeon_entrances",
    "lacs_condition": "option.light_arrow_cutscene",

    // skips
    
    "logic_man_on_roof": "skip.man_on_roof"
}